{
 "messages": [
  {
   "@type": "/cosmos.upgrade.v1beta1.MsgSoftwareUpgrade",
   "authority": "jolt10d07y265gmmuvt4z0w9aw880jnsr700jszwe96",
   "plan": {
    "name": "v022_upgrade",
    "time": "0001-01-01T00:00:00Z",
    "height": "50",
    "info":"{\"binaries\":{\"linux/amd64\":\"https://gitlab.com/api/v4/projects/42057472/packages/generic/joltify-linux-amd64-v0.0.16-testnet/v0.0.16-testnet/joltify\"}}",
    "upgraded_client_state": null
   }
  }
 ],
 "metadata": "ipfs://CID",
 "deposit": "100000000000ujolt",
"title":"upgrade to v0.0.22",
"summary":"upgrade to v0.0.22"
}

